diseasystore: Benchmarks • diseasystore
…
      Source: vignettes/benchmarks.Rmd
      benchmarks.Rmd

library(diseasystore)

To showcase the performance of diseasystore on different
database backends, we include this vignette that summarises a simple
benchmark: A sample dataset is created based on the
datasets::mtcars dataset. This data is repeated 1000 times
and given a unique ID (the row number of the data):

benchmark_data
#> # A tibble: 32,000 × 13
#>    row_id car          mpg   cyl  disp    hp  drat    wt  qsec    vs    am  gear
#>     <dbl> <chr>      <dbl> <dbl> <dbl> <dbl> <dbl> <dbl> <dbl> <dbl> <dbl> <dbl>
#>  1      1 Mazda RX4…  21       6  160    110  3.9   2.62  16.5     0     1     4
#>  2      2 Mazda RX4…  21       6  160    110  3.9   2.88  17.0     0     1     4
#>  3      3 Datsun 71…  22.8     4  108     93  3.85  2.32  18.6     1     1     4
#>  4      4 Hornet 4 …  21.4     6  258    110  3.08  3.22  19.4     1     0     3
#>  5      5 Hornet Sp…  18.7     8  360    175  3.15  3.44  17.0     0     0     3
#>  6      6 Valiant 6   18.1     6  225    105  2.76  3.46  20.2     1     0     3
#>  7      7 Duster 36…  14.3     8  360    245  3.21  3.57  15.8     0     0     3
#>  8      8 Merc 240D…  24.4     4  147.    62  3.69  3.19  20       1     0     4
#>  9      9 Merc 230 9  22.8     4  141.    95  3.92  3.15  22.9     1     0     4
#> 10     10 Merc 280 …  19.2     6  168.   123  3.92  3.44  18.3     1     0     4
#> # ℹ 31,990 more rows
#> # ℹ 1 more variable: carb <dbl>
…
