diseasystore: quick start guide • diseasystore
…
This additional information is used to do automatic aggregation
through the $key_join_features() method (see extending-diseasystore for more
details).

To use this method, you need to provide the observable
that you want to aggregate and the stratification you want
to apply to the aggregation.

Lets start with an simple example where we request no stratification
(NULL):

ds$key_join_features(observable = "n_hospital",
                     stratification = NULL)
#> # A tibble: 15 × 2
#>   date       n_hospital
#>   <date>          <dbl>
#> 1 2020-03-01          3
#> 2 2020-03-02          6
#> 3 2020-03-03          5
#> 4 2020-03-04         12
#> 5 2020-03-05          8
#> # ℹ 10 more rows

This gives us the same feature information as
ds$get_feature("n_hospital") but simplified to give the
observable per day (in this case, the number of people
hospitalised).

To specify a level of stratification, we need to supply
a list of quosures (see
help("topic-quosure", package = "rlang")).

ds$key_join_features(observable = "n_hospital",
                     stratification = rlang::quos(country_id))
#> # A tibble: 15 × 3
#>   date       country_id n_hospital
#>   <date>     <chr>           <dbl>
#> 1 2020-03-01 AR                  3
#> 2 2020-03-02 AR                  6
#> 3 2020-03-03 AR                  5
#> 4 2020-03-04 AR                 12
#> 5 2020-03-05 AR                  8
#> # ℹ 10 more rows

The stratification argument is very flexible, so we can
supply any valid R expression:

ds$key_join_features(observable = "n_hospital",
                     stratification = rlang::quos(country_id,
                                                  old = age_group == "90+"))
#> # A tibble: 30 × 4
#>   date       country_id   old n_hospital
#>   <date>     <chr>      <int>      <dbl>
#> 1 2020-03-01 AR             0         27
#> 2 2020-03-02 AR             0         54
#> 3 2020-03-03 AR             0         45
#> 4 2020-03-04 AR             0        108
#> 5 2020-03-05 AR             0         72
#> # ℹ 25 more rows
…
