Extending diseasystore - simulist example • diseasystore
…
Introduction

If you haven’t already, please consult the
vignette("extending-diseasystore") which explains the
concepts of the diseasystores in detail.

In this example, we go through how to create a
diseasystore that implements individual level data. For
this purpose, we use a synthetic data set that we have generated using
the simulist package. This data set is a synthetic line
list from a disease outbreak.

simulist_data
#> # A tibble: 11,330 × 9
#>      id case_type sex   birth        age date_onset date_admission
#>   <int> <chr>     <chr> <date>     <int> <date>     <date>        
#> 1     1 confirmed m     1951-12-17    68 2019-12-01 2019-12-05    
#> 2     2 confirmed f     1962-12-15    57 2019-12-03 NA            
#> 3     3 suspected m     1967-12-14    52 2019-12-04 2019-12-11    
#> 4     4 suspected m     2005-12-10    14 2019-12-11 2019-12-15    
#> 5     6 probable  f     1929-12-28    90 2019-12-12 2019-12-17    
#> # ℹ 11,325 more rows
#> # ℹ 2 more variables: date_discharge <date>, date_death <date>
…
After computing the feature, we filter to ensure that the data is
returned only for the requested time period.

Finally, we also specify how the feature can be summarised. That is,
we need to specify the type of key_join the feature should
use.

To illustrate how to determine the type of key_join, we
imagine that we want to determine the number of people who are born on
each date. Given our data set, we could perform the following operations
to summarize the data:

simulist_data |>
  dplyr::count(lubridate::year(.data$birth))
#> # A tibble: 91 × 2
#>   `lubridate::year(.data$birth)`     n
#>                            <dbl> <int>
#> 1                           1929    96
#> 2                           1930   131
#> 3                           1931   131
#> 4                           1932   119
#> 5                           1933   115
#> # ℹ 86 more rows
…
Lets look at some examples:

No stratification

# Get the number of positive tests by age group and sex
data1 <- ds$key_join_features(
  observable = "n_positive",
  stratification = NULL,
  start_date = ds$min_start_date,
  end_date = ds$max_end_date
)

print(data1)
#> # A tibble: 152 × 2
#>   date       n_positive
#>   <date>          <dbl>
#> 1 2019-12-01          1
#> 2 2019-12-02          0
#> 3 2019-12-03          1
#> 4 2019-12-04          0
#> 5 2019-12-05          0
#> # ℹ 147 more rows
…
print(data2)
#> # A tibble: 912 × 4
#>   date       age_group sex    n_positive
#>   <date>     <chr>     <chr>       <dbl>
#> 1 2019-12-01 30+       Female          0
#> 2 2019-12-02 30+       Female          0
#> 3 2019-12-03 30+       Female          0
#> 4 2019-12-04 30+       Female          0
#> 5 2019-12-05 30+       Female          0
#> # ℹ 907 more rows
…
print(data3)
#> # A tibble: 760 × 3
#>   date       generation n_admission
#>   <date>     <chr>            <dbl>
#> 1 2019-12-01 Millenial            0
#> 2 2019-12-02 Millenial            0
#> 3 2019-12-03 Millenial            0
#> 4 2019-12-04 Millenial            0
#> 5 2019-12-05 Millenial            0
#> # ℹ 755 more rows
…
